3 + 9 * 4
3+9*4
   3    +   9 *          4
1 + 2 + 3 * 4 + 5 * 6
3 * 4 + 5 * 6 + 1 + 2
3 * 4 + 2 + 1 + 5 * 6
4 * 1 * 2 * 3
4 + 1 + 2 + 3
0 + 0
0 * 0
0.0
13
0.5
.5
1.5
1.5 * 3.1 + 1.3 + 0.23 * 0.3 + 1.0001
*
+
4 2 5
a + C * u
                 
:q
