
C:\Users\eeyie\IdeaProjects\SOP\out\production\SOP>java Console < input.txt
-> 3 + 9 * 4
39.0
-> 3+9*4
39.0
->    3    +   9 *          4
39.0
-> 1 + 2 + 3 * 4 + 5 * 6
45.0
-> 3 * 4 + 5 * 6 + 1 + 2
45.0
-> 3 * 4 + 2 + 1 + 5 * 6
45.0
-> 4 * 1 * 2 * 3
24.0
-> 4 + 1 + 2 + 3
10.0
-> 0 + 0
0.0
-> 0 * 0
0.0
-> 0.0
0.0
-> 13
13.0
-> 0.5
0.5
-> .5
0.5
-> 1.5
1.5
-> 1.5 * 3.1 + 1.3 + 0.23 * 0.3 + 1.0001
7.0191
-> *
0.0
-> +
0.0
-> 4 2 5
Error, For input string: "4 2 5"
-> a + C * u
Error, For input string: "a"
->
Error, empty String
-> :q

C:\Users\eeyie\IdeaProjects\SOP\out\production\SOP>